! 7TeV AFB Dressed-to-Born leptons correction,
! obtained using MiNNLOPS (mW=80.385) + Pythia8 events 
60	72	0.78486405
72	81	0.62213747
81	86	0.57426386
86	88	0.35975391
88	89	2.6644419
89	90	1.1084730
90	91	1.0342339
91	92	1.0186168
92	93	1.0076121
93	94	1.0025449
94	98	1.0117384
98	120	1.0087310
120	160	0.9992192
