!
! The data are taken from arXiv:2008.04174 
!
!
!
! *flag   y1       y2       sigma	     tot	datastat	lepeffstat	mcstat	  qcd		scale	pdf	lumi
! *flag   y1       y2       sigma	     ignore	stat		uncor		uncor	  qcd		scale	pdf	lumi
&Data
  Name = 'CMS W+ cross section 13 TeV'
  IndexDataset = 83
  Reaction  = 'CC pp'

  TheoryType = 'expression'
  TermName = 'A'
  TermType = 'reaction'
  TermSource = 'APPLgrid'
  TermInfo = 'GridName=datafiles/lhc/cms/wzProduction/2008.04174/grid-40-6-15-3-Wplus_YWplus.root'
  TheorExpr = 'A/2.e3'

  NDATA = 10
  NColumn = 12
  ColumnType = 'Flag',2*'Bin','Sigma',8*'Error',
  ColumnName = 'binFlag','y1','y2','sigma', 'ignore', 'stat', 'uncor', 'uncor', 'qcd', 'scale', 'pdf', 'lumi' 
  Percent   = 13*True
&End
&PlotDesc
    PlotN = 1
    PlotDefColumn = 'y2'
    PlotDefValue = 0., 5.
    PlotOptions(1)  = 'Experiment:CMS@ExtraLabel:pp #rightarrow W^{+}; #sqrt{s} = 13 TeV; #int L = 35.9 fb^{-1}@XTitle: y_{W} @YTitle: d#sigma/dy_{W} [pb] '
!@YminR:0.61@YmaxR:1.39'
&End
*flag   y1       y2       sigma	     tot	datastat	lepeffstat	mcstat	  qcd		scale	pdf	lumi
1	0.00	 0.25	  2944.0     2.13	0.0925		0.484		1.18	  0.499		0.962	0.537	2.0
1	0.25	 0.50	  2918.0     2.17	0.155		0.506		1.24	  0.493		0.994	0.538	2.0
1	0.50	 0.75	  2966.0     2.18	0.166		0.504		1.26	  0.489		1.01	0.524	2.0
1	0.75	 1.00	  2902.0     2.17	0.178		0.533		1.26	  0.493		0.997	0.505	1.99
1	1.00	 1.25	  2906.0     2.17	0.187		0.489		1.26	  0.513		0.986	0.497	1.99
1	1.25	 1.50	  2844.0     2.22	0.219		0.546		1.32	  0.51		1.01	0.464	1.99
1	1.50	 1.75	  2887.0     2.31	0.31		0.545		1.43	  0.522		1.05	0.451	2.02
1	1.75	 2.00	  2634.0     2.81	0.593		0.678		2.03	  0.609		1.05	0.449	2.01
1	2.00	 2.25	  3100.0     3.88	0.848		1.16		3.12	  0.725		1.25	0.486	2.09
1	2.25	 2.50	  2670.0     5.51	1.05		2.02		4.6	  0.886		1.82	0.541	1.94
