        0      0.4       0.992392922803    0.000105847465305
      0.4      0.8        0.99252652457     0.00010780126526
      0.8      1.2        0.99337848632    0.000115843226859
      1.2      1.6       0.994448326769    0.000137772871061
      1.6        2        0.99641823434    0.000188956673688
        2      2.4       0.997145209254    0.000373028410111
