        0      0.1       0.996366482792    0.000139054342847
      0.1      0.2       0.996150301908     0.00013921380628
      0.2      0.3       0.996294941765    0.000139547622269
      0.3      0.4       0.996369766874    0.000140220089564
      0.4      0.5       0.996315040149    0.000141249140136
      0.5      0.6       0.996236803101    0.000142401789709
      0.6      0.7       0.996329749636    0.000143699225022
      0.7      0.8       0.996346676198    0.000145494801087
      0.8      0.9       0.996262187173    0.000147552616227
      0.9        1       0.996466562917    0.000150121839365
        1      1.1       0.996561236547    0.000153040534628
      1.1      1.2       0.996550123937    0.000156362109862
      1.2      1.3        0.99664907592    0.000160514859333
      1.3      1.4       0.996809654141    0.000165328744055
      1.4      1.5       0.996803524138    0.000171195990081
      1.5      1.6       0.997151806683    0.000178126326389
      1.6      1.7       0.997039453397    0.000186903533864
      1.7      1.8       0.997633952474    0.000197468809582
      1.8      1.9       0.998026060822    0.000210772347844
      1.9        2       0.998332508392    0.000227901853003
        2      2.1       0.998554811513     0.00025002387031
      2.1      2.2       0.998542346289    0.000279140538218
      2.2      2.3       0.999637877487    0.000318684593967
      2.3      2.4          1.000643098     0.00037459444447
      2.4      2.5        1.00262196237    0.000457315161522
      2.5      2.6        1.00335775996     0.00058558687232
      2.6      2.7        1.00562545252    0.000799695530885
      2.7      2.9        1.01237244673     0.00103245585086
