        0      0.1       0.997728380261    0.000124909503048
      0.1      0.2       0.998066861249    0.000124949891924
      0.2      0.3       0.997747179431    0.000125131375467
      0.3      0.4       0.997764278436    0.000125242824747
      0.4      0.5       0.997758634277    0.000125350154022
      0.5      0.6       0.997928062775    0.000125697298039
      0.6      0.7       0.997887911718    0.000126119617616
      0.7      0.8       0.997835131332    0.000126337489176
      0.8      0.9       0.997604193259    0.000126681879931
      0.9        1       0.997725893792    0.000127339379394
        1      1.1       0.997522039314    0.000127946686713
      1.1      1.2       0.997621629935    0.000128543305679
      1.2      1.3         0.9976775675    0.000129200001497
      1.3      1.5       0.997760489836    9.22449678763e-05
      1.5      1.7       0.997832988124    9.35178453228e-05
      1.7      1.9       0.997921227251    9.50230455896e-05
      1.9      2.1       0.997850059599    9.67010672156e-05
      2.1      2.4       0.997658393345    8.09302588716e-05
