        0      0.1        0.99742672528    0.000127432406708
      0.1      0.2       0.997377190248    0.000127418829405
      0.2      0.3       0.997600522305    0.000127551573006
      0.3      0.4       0.997219401783    0.000127569494399
      0.4      0.5       0.997452695221    0.000127698198523
      0.5      0.6       0.997307710157    0.000127954890588
      0.6      0.7       0.997352396387     0.00012805148641
      0.7      0.8        0.99735798818    0.000128282421911
      0.8      0.9       0.997293887758    0.000128484719372
      0.9        1       0.997407979803    0.000128722886349
        1      1.1       0.997286299198      0.0001291093755
      1.1      1.2       0.997482570297    0.000129420122928
      1.2      1.3       0.997487382343    0.000129743867376
      1.3      1.5       0.997410155492    9.21214782204e-05
      1.5      1.7       0.997571833753    9.26830627797e-05
      1.7      1.9       0.997254192805    9.33279020653e-05
      1.9      2.1       0.997145351958    9.39790349282e-05
      2.1      2.4       0.997325854624    7.73789866703e-05
