        0     0.25       0.996627014099    0.000105370876454
     0.25      0.5       0.996851206793     0.00010542505185
      0.5     0.75       0.996842318696    0.000105555930807
     0.75        1       0.996690437589    0.000105694359256
        1     1.25       0.996678912729    0.000105868008055
     1.25      1.5       0.996645581763    0.000106086267419
      1.5     1.75         0.9965994265    0.000106258233329
     1.75        2       0.996691094118     0.00010650451006
        2     2.25       0.996569412761    0.000106675224301
     2.25      2.5       0.996435900197    0.000106900754752
