20 GeV < m(mu+mu-) < 30 GeV:
        0      0.1        1.07319305224    0.000171710050564
      0.1      0.2         1.0733243076    0.000171653016557
      0.2      0.3        1.07336090024    0.000171747434836
      0.3      0.4        1.07336205328    0.000171819500063
      0.4      0.5        1.07377291483    0.000171976901962
      0.5      0.6        1.07349690723    0.000172075998637
      0.6      0.7        1.07368871574    0.000172322697974
      0.7      0.8        1.07393688024     0.00017261199292
      0.8      0.9        1.07349560334    0.000172665312415
      0.9        1        1.07385669529    0.000172995760227
        1      1.1        1.07358771115    0.000173089577817
      1.1      1.2        1.07379560484    0.000173698396077
      1.2      1.3        1.07402116594    0.000173868254259
      1.3      1.4        1.07383293574    0.000174257734289
      1.4      1.5         1.0740337683    0.000174638570536
      1.5      1.6        1.07382110372    0.000174995622783
      1.6      1.7        1.07393119342    0.000175484182359
      1.7      1.8        1.07395323451    0.000175945205928
      1.8      1.9        1.07387556043    0.000176413243041
      1.9        2        1.07411145709    0.000177049000972
        2      2.1         1.0741415042     0.00017741267249
      2.1      2.2        1.07408896664    0.000178064712738
      2.2      2.3        1.07396558585    0.000178638898913
      2.3      2.4        1.07263874537    0.000178630505279

30 GeV < m(mu+mu-) < 45 GeV:
        0      0.1         1.0492610343    0.000150969850226
      0.1      0.2        1.04925977699    0.000150991442983
      0.2      0.3        1.04951594104    0.000151204260161
      0.3      0.4        1.04939493131    0.000151182820006
      0.4      0.5        1.04932788013    0.000151228774852
      0.5      0.6        1.04923120108    0.000151310763253
      0.6      0.7        1.04937475872      0.0001515900984
      0.7      0.8        1.04923802931    0.000151687508978
      0.8      0.9         1.0491947893    0.000151952723717
      0.9        1        1.04929227314    0.000152244438821
        1      1.1        1.04935467896    0.000152516380908
      1.1      1.2        1.04912851269    0.000152728577842
      1.2      1.3        1.04917893765    0.000153014333843
      1.3      1.4        1.04917312421     0.00015331353087
      1.4      1.5        1.04926871323    0.000153675459858
      1.5      1.6        1.04934332678    0.000154165687122
      1.6      1.7        1.04921416866    0.000154525803488
      1.7      1.8        1.04919624067    0.000154981041687
      1.8      1.9        1.04927600098    0.000155417888812
      1.9        2        1.04928499807    0.000155828849204
        2      2.1        1.04898173386    0.000156408459887
      2.1      2.2        1.04906323167    0.000157119596314
      2.2      2.3        1.04901819239    0.000157512313116
      2.3      2.4        1.04884786465    0.000158291613323

45 GeV < m(mu+mu-) < 60 GeV:
        0      0.1        1.05378977723    0.000144805658277
      0.1      0.2        1.05406646657    0.000144765483651
      0.2      0.3        1.05406355649    0.000144824446228
      0.3      0.4        1.05376978793    0.000144900812834
      0.4      0.5        1.05411046878    0.000145024341266
      0.5      0.6         1.0541942199    0.000145225481251
      0.6      0.7        1.05409321282    0.000145368552214
      0.7      0.8        1.05410933508    0.000145617932473
      0.8      0.9        1.05422434067    0.000145913884219
      0.9        1        1.05405462943    0.000146152579519
        1      1.1         1.0543617642     0.00014649381793
      1.1      1.2         1.0541238371    0.000146848311519
      1.2      1.3        1.05423064801    0.000147197699111
      1.3      1.4         1.0540709038    0.000147523118948
      1.4      1.5        1.05396973847    0.000148114442066
      1.5      1.6        1.05399930697     0.00014839850923
      1.6      1.7         1.0536979599    0.000148949677588
      1.7      1.8        1.05373761286    0.000149704093827
      1.8      1.9        1.05396265745    0.000150195383271
      1.9        2        1.05391777473    0.000150670908367
        2      2.1         1.0540416951     0.00015147285459
      2.1      2.2        1.05390172507    0.000152245534288
      2.2      2.3        1.05397306839    0.000152948696216
      2.3      2.4        1.05390912609    0.000153796120533

60 GeV < m(mu+mu-) < 120 GeV:
        0      0.1       0.997308445792     0.00012695518866
      0.1      0.2       0.997212900919    0.000127084303767
      0.2      0.3       0.997191726656    0.000127285259558
      0.3      0.4       0.997310937481     0.00012734879216
      0.4      0.5       0.997175126435    0.000127690349918
      0.5      0.6        0.99718082172    0.000128105306886
      0.6      0.7       0.997188367971    0.000128561111395
      0.7      0.8       0.997112885445    0.000129123253258
      0.8      0.9       0.997200873929    0.000129585146133
      0.9        1        0.99707151035    0.000130355676288
        1      1.1       0.997303605737    0.000131233149047
      1.1      1.2       0.997170511764    0.000132046236365
      1.2      1.3       0.997153308735    0.000132953117034
      1.3      1.4       0.997203045093     0.00013408140669
      1.4      1.5       0.997434152873    0.000135493251294
      1.5      1.6       0.997355154608    0.000136903148539
      1.6      1.7        0.99724736642     0.00013836076615
      1.7      1.8        0.99753503974    0.000139971965662
      1.8      1.9       0.997327804396    0.000141864341807
      1.9        2       0.997224367389    0.000144039244611
        2      2.1       0.997222918283    0.000146553514449
      2.1      2.2       0.996939986521    0.000149105256107
      2.2      2.3        0.99757276431    0.000152260967645
      2.3      2.4        0.99720758366    0.000155602102383

120 GeV < m(mu+mu-) < 200 GeV:
        0      0.1        0.99411439151    0.000184214036994
      0.1      0.2       0.994209941072    0.000184308696795
      0.2      0.3       0.994307302319    0.000184614995827
      0.3      0.4       0.994644786973    0.000185018943641
      0.4      0.5       0.993984914366    0.000185315666838
      0.5      0.6       0.994364480604    0.000186239576538
      0.6      0.7       0.993886131485    0.000186636845047
      0.7      0.8       0.993964403341    0.000187759758276
      0.8      0.9       0.994224411279    0.000188752861941
      0.9        1       0.993871992641    0.000189824816695
        1      1.1       0.993762747816    0.000190966106759
      1.1      1.2        0.99345560027    0.000192467110548
      1.2      1.3        0.99338529202    0.000194225461693
      1.3      1.4       0.993965082077     0.00019627049142
      1.4      1.5       0.993390224592    0.000198415227409
      1.5      1.6       0.993256231275    0.000200751522907
      1.6      1.7       0.993273079944    0.000203498651492
      1.7      1.8       0.993128133657     0.00020661746877
      1.8      1.9       0.993453172608    0.000210180739789
      1.9        2       0.993444215277    0.000214346392388
        2      2.1       0.992781621721    0.000219108212902
      2.1      2.2       0.992505026137    0.000224825502267
      2.2      2.3       0.992229804995     0.00023151674394
      2.3      2.4       0.992152269548    0.000239429914637

200 GeV < m(mu+mu-) < 1500 GeV:
        0      0.2       0.995788519208    0.000151756682903
      0.2      0.4       0.995696454946    0.000152285203233
      0.4      0.6       0.995938188194    0.000153373585364
      0.6      0.8       0.995368433138     0.00015508849812
      0.8        1        0.99533264616    0.000157664280042
        1      1.2       0.995342651522    0.000160944232422
      1.2      1.4       0.994991877767    0.000165730783111
      1.4      1.6       0.995478100697    0.000172343377293
      1.6      1.8       0.995140469855    0.000181933361736
      1.8        2        0.99507101578    0.000196441894447
        2      2.2       0.995293095695    0.000218371984766
      2.2      2.4       0.995126592917    0.000253338964528
