        2    2.125       0.999988042036    0.000299977956067
    2.125     2.25       0.997216651748    0.000177548700209
     2.25    2.325       0.997143917904    0.000188870243019
    2.325      2.5       0.997286150378    0.000106580248977
      2.5    2.625        0.99737890468    0.000113106514495
    2.625     2.75       0.997497278949    0.000107424051003
     2.75    2.825       0.997662795548    0.000135569570664
    2.825        3       0.997912209749    8.86722325678e-05
        3    3.125       0.998335672932    0.000107946588909
    3.125     3.25       0.998595995567     0.00011375097776
     3.25    3.375       0.999268515501    0.000126833135093
    3.375      3.5        1.00009970948     0.00015041799269
      3.5    3.625        1.00118556156    0.000186470737165
    3.625     3.75        1.00251179774    0.000246084082185
     3.75    3.825        1.00445362115    0.000420648683204
    3.825        4        1.00734260131    0.000421239827336
        4     4.25        1.01586540672    0.000962436473939
     4.25      4.5        1.05537412973     0.00621805442614
