        0      0.2       0.997363744624      8.765167467e-05
      0.2      0.4       0.997255912463     8.7911186998e-05
      0.4      0.6       0.997396140985    8.82445807915e-05
      0.6      0.8       0.997556278152    8.88228093655e-05
      0.8        1       0.997351054653    8.95698841281e-05
        1      1.2       0.997393616882    9.05373984077e-05
      1.2      1.4       0.997472707957    9.16755827211e-05
      1.4      1.6       0.997248323586    9.29656342666e-05
      1.6     1.85       0.997475912922    8.47086784251e-05
     1.85      2.1       0.997446701849    8.67306423051e-05
      2.1      2.4       0.997521164327    8.15787061854e-05
