        0      0.5       0.995902365964    5.11081214459e-05
      0.5        1       0.995990659759    5.19774777872e-05
        1      1.5       0.996307122297    5.62919438091e-05
      1.5        2       0.996594670078    7.23497870497e-05
        2      2.5       0.996705198791    0.000134344546738
