        0     0.21        0.99722603999    8.63016757218e-05
     0.21     0.42       0.997362468619    8.65208107113e-05
     0.42     0.63       0.997110928838    8.70157826085e-05
     0.63     0.84       0.997306379552    8.77765233782e-05
     0.84     1.05        0.99730333786    8.86343838918e-05
     1.05     1.37       0.997154453392    7.30026897152e-05
     1.37     1.52       0.997175419502    0.000108498237485
     1.52     1.74       0.997067975556    9.10008469088e-05
     1.74     1.95       0.997119795981     9.5096979216e-05
     1.95     2.18       0.997069243526      9.327522139e-05
     2.18      2.5       0.996895606003    8.24996455475e-05
