        0      0.1       0.995974744533    0.000138906389574
      0.1      0.2       0.995903558025    0.000139107258833
      0.2      0.3       0.995981374379    0.000139517492553
      0.3      0.4       0.995688045836     0.00014009879577
      0.4      0.5       0.996018696537    0.000141066599326
      0.5      0.6       0.995945331479    0.000142205218271
      0.6      0.7       0.995982409293    0.000143680559814
      0.7      0.8       0.996096343071    0.000145417146155
      0.8      0.9       0.995835749419    0.000147530895318
      0.9        1       0.996071502225    0.000150116045663
        1      1.1       0.995796706206    0.000152967398611
      1.1      1.2       0.996243901917    0.000156389639879
      1.2      1.3       0.996071759096    0.000160590463127
      1.3      1.4        0.99629294367    0.000165374121644
      1.4      1.5       0.996161461589    0.000171196453979
      1.5      1.6       0.996600943734    0.000178313687453
      1.6      1.7       0.996727423628    0.000186887528112
      1.7      1.8       0.996820151807    0.000197695508002
      1.8      1.9       0.997186532966    0.000211198770703
      1.9        2       0.997342899578     0.00022831778051
        2      2.1       0.998079289724    0.000250467353139
      2.1      2.2       0.997928888335    0.000279780612486
      2.2      2.3       0.998930456145    0.000320470410411
      2.3      2.4       0.999476895323    0.000377044544973
      2.4      2.5         1.0008705057    0.000460754722533
      2.5      2.6        1.00108798029    0.000592940669666
      2.6      2.7        1.00348256773    0.000817637463373
      2.7      2.8        1.00694597275     0.00123934892222
