        2    2.125       0.999073357833    0.000336850656865
    2.125     2.25       0.996827218743    0.000197798904422
     2.25    2.325       0.996986028948    0.000208940337832
    2.325      2.5       0.996667693571    0.000116518358049
      2.5    2.625        0.99697078677    0.000121334957442
    2.625     2.75       0.996859353165    0.000113062545613
     2.75    2.825       0.997111504674    0.000140242928219
    2.825        3       0.997120774567    8.89574704535e-05
        3    3.125       0.997181150649    0.000103443194439
    3.125     3.25       0.997019432824    0.000103632392329
     3.25    3.375       0.997306373052    0.000108233505286
    3.375      3.5       0.997742599582    0.000117978516984
      3.5    3.625        0.99790967956    0.000131227595462
    3.625     3.75       0.998208361974    0.000149343089609
     3.75    3.825       0.998864434451     0.00021876073103
    3.825        4       0.998765629935    0.000173718148553
        4     4.25       0.999917223721    0.000227183986449
     4.25      4.5        1.00135738853    0.000573893331921
