        0      0.2       0.996821764326    9.02876163316e-05
      0.2      0.4       0.996845229229    9.03203405399e-05
      0.4      0.6       0.997083294414    9.05041992223e-05
      0.6      0.8       0.996910672776    9.07260539208e-05
      0.8        1       0.996886138586    9.09963536698e-05
        1      1.2       0.996734951853    9.13484655371e-05
      1.2      1.4       0.996721894224    9.18221698405e-05
      1.4      1.6        0.99653762169     9.2299722853e-05
      1.6     1.85        0.99664524913    8.29759279059e-05
     1.85      2.1       0.996601493568    8.34768623054e-05
      2.1      2.4         0.9966214873    7.65659590261e-05
