0.000000 0.105000 0.210000 0.984647 0.000048
0.210000 0.315000 0.420000 0.982870 0.000033
0.420000 0.525000 0.630000 0.983752 0.000095
0.630000 0.735000 0.840000 0.984554 0.000030
0.840000 0.945000 1.050000 0.984470 0.000051
1.050000 1.210000 1.370000 0.985495 0.000081
1.370000 1.445000 1.520000 0.985879 0.000041
1.520000 1.630000 1.740000 0.985836 0.000068
1.740000 1.845000 1.950000 0.986192 0.000050
1.950000 2.065000 2.180000 0.986487 0.000072
2.180000 2.340000 2.500000 0.983694 0.000085
