0.000000 0.200000 0.400000 1.034848 0.000076
0.400000 0.600000 0.800000 1.034132 0.000064
0.800000 1.000000 1.200000 1.035218 0.000069
1.200000 1.400000 1.600000 1.034230 0.000072
1.600000 1.800000 2.000000 1.023485 0.000077
2.000000 2.200000 2.400000 1.032500 0.000133
