 First iteration    1582.6262206778979             1223   1.2940525107750596     
After minimisation    1582.63  1223     1.294

  Partial chi2s 
Dataset    1    477.96( +3.98)   377  HERA1+2 NCep 920                                
Dataset    2     71.05( -0.53)    70  HERA1+2 NCep 820                                
Dataset    3    228.73( -2.08)   254  HERA1+2 NCep 575                                
Dataset    4    226.40( -3.60)   204  HERA1+2 NCep 460                                
Dataset    5    243.95( -2.98)   159  HERA1+2 NCem                                    
Dataset    6     55.84( +0.71)    39  HERA1+2 CCep                                    
Dataset    7     83.57( -1.16)    42  HERA1+2 CCem                                    
Dataset    8     22.13( +0.05)    28  D0 Z rapidity 2007                              
Dataset    9     14.93( +0.00)    10  D0 W->mu nu lepton asymmetry ptl > 25 GeV       
Dataset   10     16.23( -0.00)    14  D0 W asymmetry 2013                             
Dataset   11     28.44( -1.85)    28  CDF Z rapidity 2010                             
Dataset   12     13.79( -0.00)    13  CDF W asymmetry 2009                            

 Correlated Chi2    107.06760827731013     
 Log penalty Chi2   -7.4578969687998908     
 Systematic shifts          212
  
                                Name          Shift   +/-    Error          Type
    1  sysHZComb1001                         -0.0086   +/-   0.9327        :N:M:D
    2  sysHZComb1002                         -0.6299   +/-   0.9364        :N:M:D
    3  sysHZComb1003                          1.5906   +/-   0.5571        :N:M:D
    4  sysHZComb1004                          0.3890   +/-   0.6191        :N:M:D
    5  sysHZComb1005                         -0.1670   +/-   0.6093        :N:M:D
    6  sysHZComb1006                         -0.2547   +/-   0.7879        :N:M:D
    7  sysHZComb1007                          0.1270   +/-   0.9982        :N:M:D
    8  sysHZComb1008                          0.0922   +/-   0.9983        :N:M:D
    9  sysHZComb1009                         -0.0015   +/-   0.9002        :N:M:D
   10  sysHZComb1010                         -0.5154   +/-   0.9936        :N:M:D
   11  sysHZComb1011                         -0.7002   +/-   0.9662        :N:M:D
   12  sysHZComb1012                          0.5650   +/-   0.9721        :N:M:D
   13  sysHZComb1013                         -0.6462   +/-   0.9620        :N:M:D
   14  sysHZComb1014                         -0.0247   +/-   0.9875        :N:M:D
   15  sysHZComb1015                         -0.2017   +/-   0.9632        :N:M:D
   16  sysHZComb1016                          0.0016   +/-   0.9749        :N:M:D
   17  sysHZComb1017                         -0.4087   +/-   0.9709        :N:M:D
   18  sysHZComb1018                          0.1549   +/-   0.8231        :N:M:D
   19  sysHZComb1019                         -0.3527   +/-   0.9837        :N:M:D
   20  sysHZComb1020                         -0.3844   +/-   0.9814        :N:M:D
   21  sysHZComb1021                         -0.2391   +/-   0.9744        :N:M:D
   22  sysHZComb1022                          0.0911   +/-   0.9687        :N:M:D
   23  sysHZComb1023                         -0.1829   +/-   0.9453        :N:M:D
   24  sysHZComb1024                         -0.2603   +/-   0.9879        :N:M:D
   25  sysHZComb1025                          0.0783   +/-   0.9933        :N:M:D
   26  sysHZComb1026                         -1.1193   +/-   0.9202        :N:M:D
   27  sysHZComb1027                         -1.2010   +/-   0.9544        :N:M:D
   28  sysHZComb1028                          0.8820   +/-   0.9749        :N:M:D
   29  sysHZComb1029                         -0.5565   +/-   0.9185        :N:M:D
   30  sysHZComb1030                         -0.1612   +/-   0.9438        :N:M:D
   31  sysHZComb1031                         -0.7105   +/-   0.8390        :N:M:D
   32  sysHZComb1032                          0.9040   +/-   0.9643        :N:M:D
   33  sysHZComb1033                          0.5047   +/-   0.9708        :N:M:D
   34  sysHZComb1034                         -0.3817   +/-   0.9841        :N:M:D
   35  sysHZComb1035                          0.2747   +/-   0.9783        :N:M:D
   36  sysHZComb1036                         -0.8069   +/-   0.9742        :N:M:D
   37  sysHZComb1037                          0.2163   +/-   0.9702        :N:M:D
   38  sysHZComb1038                         -1.0232   +/-   0.9127        :N:M:D
   39  sysHZComb1039                         -0.5531   +/-   0.9536        :N:M:D
   40  sysHZComb1040                         -0.2986   +/-   0.9303        :N:M:D
   41  sysHZComb1041                         -0.6266   +/-   0.8130        :N:M:D
   42  sysHZComb1042                         -0.0217   +/-   0.8748        :N:M:D
   43  sysHZComb1043                         -0.2588   +/-   0.9097        :N:M:D
   44  sysHZComb1044                         -0.0247   +/-   0.9368        :N:M:D
   45  sysHZComb1045                         -0.2932   +/-   0.9311        :N:M:D
   46  sysHZComb1046                         -0.0217   +/-   0.9570        :N:M:D
   47  sysHZComb1047                          0.0590   +/-   0.9471        :N:M:D
   48  sysHZComb1048                         -0.1056   +/-   0.9610        :N:M:D
   49  sysHZComb1049                         -0.8414   +/-   0.9461        :N:M:D
   50  sysHZComb1050                          0.6682   +/-   0.9430        :N:M:D
   51  sysHZComb1051                          0.4235   +/-   0.9523        :N:M:D
   52  sysHZComb1052                          0.8618   +/-   0.9508        :N:M:D
   53  sysHZComb1053                         -2.9484   +/-   0.9192        :N:M:D
   54  sysHZComb1054                          0.0364   +/-   0.9750        :N:M:D
   55  sysHZComb1055                         -1.7703   +/-   0.9057        :N:M:D
   56  sysHZComb1056                         -1.5457   +/-   0.8907        :N:M:D
   57  sysHZComb1057                          0.1019   +/-   0.9198        :N:M:D
   58  sysHZComb1058                          0.0940   +/-   0.9433        :N:M:D
   59  sysHZComb1059                         -0.6773   +/-   0.8700        :N:M:D
   60  sysHZComb1060                          0.2506   +/-   0.9791        :N:M:D
   61  sysHZComb1061                          0.0695   +/-   0.9831        :N:M:D
   62  sysHZComb1062                         -1.7349   +/-   0.8960        :N:M:D
   63  sysHZComb1063                          0.7062   +/-   0.8364        :N:M:D
   64  sysHZComb1064                          0.7386   +/-   0.9294        :N:M:D
   65  sysHZComb1065                         -1.0692   +/-   0.9470        :N:M:D
   66  sysHZComb1066                         -0.9150   +/-   0.9322        :N:M:D
   67  sysHZComb1067                         -0.1598   +/-   0.9639        :N:M:D
   68  sysHZComb1068                         -0.0611   +/-   0.9200        :N:M:D
   69  sysHZComb1069                         -0.4189   +/-   0.9129        :N:M:D
   70  sysHZComb1070                          0.4539   +/-   0.9079        :N:M:D
   71  sysHZComb1071                         -1.3473   +/-   0.8577        :N:M:D
   72  sysHZComb1072                          0.2247   +/-   0.9704        :N:M:D
   73  sysHZComb1073                         -0.2283   +/-   0.9036        :N:M:D
   74  sysHZComb1074                         -0.6254   +/-   0.9352        :N:M:D
   75  sysHZComb1075                         -0.8843   +/-   0.8658        :N:M:D
   76  sysHZComb1076                          0.2852   +/-   0.9605        :N:M:D
   77  sysHZComb1077                         -0.3040   +/-   0.9612        :N:M:D
   78  sysHZComb1078                         -0.1257   +/-   0.9756        :N:M:D
   79  sysHZComb1079                         -0.8479   +/-   0.8843        :N:M:D
   80  sysHZComb1080                         -0.0989   +/-   0.9254        :N:M:D
   81  sysHZComb1081                         -0.0395   +/-   0.8883        :N:M:D
   82  sysHZComb1082                         -1.0186   +/-   0.8387        :N:M:D
   83  sysHZComb1083                         -1.4651   +/-   0.8905        :N:M:D
   84  sysHZComb1084                          0.4458   +/-   0.9684        :N:M:D
   85  sysHZComb1085                         -0.3710   +/-   0.8689        :N:M:D
   86  sysHZComb1086                         -0.4924   +/-   0.7928        :N:M:D
   87  sysHZComb1087                         -0.7626   +/-   0.8598        :N:M:D
   88  sysHZComb1088                          0.3137   +/-   0.9911        :N:M:D
   89  sysHZComb1089                          0.2646   +/-   0.9611        :N:M:D
   90  sysHZComb1090                          0.7099   +/-   0.9432        :N:M:D
   91  sysHZComb1091                          0.7077   +/-   0.8876        :N:M:D
   92  sysHZComb1092                          0.0725   +/-   0.8096        :N:M:D
   93  sysHZComb1093                          0.3142   +/-   0.7908        :N:M:D
   94  sysHZComb1094                          0.0706   +/-   0.9992        :N:M:D
   95  sysHZComb1095                         -0.1505   +/-   0.8472        :N:M:D
   96  sysHZComb1096                         -0.1876   +/-   0.8952        :N:M:D
   97  sysHZComb1097                          0.2481   +/-   0.9879        :N:M:D
   98  sysHZComb1098                          0.7870   +/-   0.7371        :N:M:D
   99  sysHZComb1099                          0.2134   +/-   0.6847        :N:M:D
  100  sysHZComb1100                         -0.3459   +/-   0.6887        :N:M:D
  101  sysHZComb1101                         -0.2479   +/-   0.7734        :N:M:D
  102  sysHZComb1102                         -0.4496   +/-   0.9025        :N:M:D
  103  sysHZComb1103                          0.5232   +/-   0.7913        :N:M:D
  104  sysHZComb1104                         -1.2900   +/-   0.7942        :N:M:D
  105  sysHZComb1105                          0.7713   +/-   0.6955        :N:M:D
  106  sysHZComb1106                         -0.3375   +/-   0.7727        :N:M:D
  107  sysHZComb1107                          0.7911   +/-   0.7425        :N:M:D
  108  sysHZComb1108                          2.5305   +/-   0.6799        :N:M:D
  109  sysHZComb1109                          0.3620   +/-   0.9900        :N:M:D
  110  sysHZComb1110                         -0.3977   +/-   0.7037        :N:M:D
  111  sysHZComb1111                         -1.8301   +/-   0.5509        :N:M:D
  112  sysHZComb1112                          0.1447   +/-   0.9904        :N:M:D
  113  sysHZComb1113                          0.5076   +/-   0.8384        :N:M:D
  114  sysHZComb1114                          1.5285   +/-   0.8066        :N:M:D
  115  sysHZComb1115                          0.4208   +/-   0.7574        :N:M:D
  116  sysHZComb1116                         -1.2126   +/-   0.7733        :N:M:D
  117  sysHZComb1117                          1.1807   +/-   0.8241        :N:M:D
  118  sysHZComb1118                         -0.2247   +/-   0.9966        :N:M:D
  119  sysHZComb1119                          0.0176   +/-   0.9749        :N:M:D
  120  sysHZComb1120                          1.2245   +/-   0.8555        :N:M:D
  121  sysHZComb1121                          0.3148   +/-   0.9900        :N:M:D
  122  sysHZComb1122                          0.0918   +/-   0.9331        :N:M:D
  123  sysHZComb1123                         -0.5587   +/-   0.9291        :N:M:D
  124  sysHZComb1124                         -1.1180   +/-   0.8628        :N:M:D
  125  sysHZComb1125                          1.0384   +/-   0.8722        :N:M:D
  126  sysHZComb1126                         -0.1140   +/-   0.9168        :N:M:D
  127  sysHZComb1127                          0.1179   +/-   0.9240        :N:M:D
  128  sysHZComb1128                         -0.4240   +/-   0.9557        :N:M:D
  129  sysHZComb1129                          0.1790   +/-   0.8592        :N:M:D
  130  sysHZComb1130                          0.0900   +/-   0.8082        :N:M:D
  131  sysHZComb1131                          0.6564   +/-   0.7926        :N:M:D
  132  sysHZComb1132                         -1.0532   +/-   0.7910        :N:M:D
  133  sysHZComb1133                          0.4457   +/-   0.8230        :N:M:D
  134  sysHZComb1134                          0.5525   +/-   0.9788        :N:M:D
  135  sysHZComb1135                         -1.9007   +/-   0.8201        :N:M:D
  136  sysHZComb1136                          0.3160   +/-   0.8789        :N:M:D
  137  sysHZComb1137                          0.0129   +/-   0.8850        :N:M:D
  138  sysHZComb1138                          0.1387   +/-   0.9204        :N:M:D
  139  sysHZComb1139                         -1.1688   +/-   0.9415        :N:M:D
  140  sysHZComb1140                         -0.8007   +/-   0.9581        :N:M:D
  141  sysHZComb1141                         -0.2509   +/-   0.9711        :N:M:D
  142  sysHZComb1142                          1.2019   +/-   0.8615        :N:M:D
  143  sysHZComb1143                          0.6282   +/-   0.8559        :N:M:D
  144  sysHZComb1144                          1.2240   +/-   0.8426        :N:M:D
  145  sysHZComb1145                          0.4064   +/-   0.9860        :N:M:D
  146  sysHZComb1146                          0.2397   +/-   0.9897        :N:M:D
  147  sysHZComb1147                          0.6934   +/-   0.8057        :N:M:D
  148  sysHZComb1148                         -0.6489   +/-   0.7940        :N:M:D
  149  sysHZComb1149                          0.4538   +/-   0.7663        :N:M:D
  150  sysHZComb1150                         -0.1760   +/-   0.7892        :N:M:D
  151  sysHZComb1151                         -0.1635   +/-   0.9631        :N:M:D
  152  sysHZComb1152                          0.0763   +/-   0.7367        :N:M:D
  153  sysHZComb1153                         -1.1263   +/-   0.8363        :N:M:D
  154  sysHZComb1154                         -0.6488   +/-   0.8137        :N:M:D
  155  sysHZComb1155                          1.4382   +/-   0.8176        :N:M:D
  156  sysHZComb1156                          0.2693   +/-   0.9167        :N:M:D
  157  sysHZComb1157                          0.7087   +/-   0.7240        :N:M:D
  158  sysHZComb1158                          0.1175   +/-   0.7988        :N:M:D
  159  sysHZComb1159                         -0.0203   +/-   1.0000        :N:M:D
  160  sysHZComb1160                          0.4355   +/-   0.8823        :N:M:D
  161  sysHZComb1161                          0.6938   +/-   0.8428        :N:M:D
  162  sysHZComb1162                          0.8427   +/-   0.8892        :N:M:D
  163  proc_nrl                               0.3799   +/-   0.3880        :N:M:D
  164  proc_tb21                             -3.0336   +/-   0.6712        :N:M:D
  165  proc_tb22                             -1.6890   +/-   0.3070        :N:M:D
  166  proc_tb23                             -0.0780   +/-   0.4352        :N:M:D
  167  proc_tb24                             -0.4068   +/-   0.4104        :N:M:D
  168  proc_gp                               -0.2152   +/-   0.4546        :N:M:D
  169  proc_had                              -0.5770   +/-   0.5391        :N:M:D
  170  D0_ZY_2007_SystCorr                    0.0201   +/-   0.2653        :N:M:D
  171  D0_WMUA_EWbkg                          0.1261   +/-   0.9649        :N:A:D
  172  D0_WMUA_MJbkg                          0.6805   +/-   0.9291        :N:A:D
  173  D0_WMUA_charge_misid                   0.0968   +/-   0.9967        :N:A:D
  174  D0_WMUA_rel_charge_efficiency          0.0085   +/-   0.9593        :N:A:D
  175  D0_WMUA_magnet_pol_weighting          -0.0123   +/-   0.9981        :N:A:D
  176  D0_WMUA_momentum_met_resolution        0.1802   +/-   0.5279        :N:A:D
  177  D0_WA_pdf_01                          -0.0132   +/-   0.9876        :N:A:D
  178  D0_WA_pdf_02                           0.0497   +/-   0.9972        :N:A:D
  179  D0_WA_pdf_03                          -0.0102   +/-   0.9997        :N:A:D
  180  D0_WA_pdf_04                          -0.0253   +/-   0.9882        :N:A:D
  181  D0_WA_pdf_05                          -0.0566   +/-   0.9855        :N:A:D
  182  D0_WA_pdf_06                          -0.0080   +/-   0.9938        :N:A:D
  183  D0_WA_pdf_07                           0.0267   +/-   0.9938        :N:A:D
  184  D0_WA_pdf_08                           0.0252   +/-   0.9995        :N:A:D
  185  D0_WA_pdf_09                          -0.1065   +/-   0.9432        :N:A:D
  186  D0_WA_pdf_10                           0.1500   +/-   0.9694        :N:A:D
  187  D0_WA_pdf_11                          -0.0158   +/-   0.9852        :N:A:D
  188  D0_WA_pdf_12                          -0.0240   +/-   0.9946        :N:A:D
  189  D0_WA_pdf_13                          -0.0250   +/-   0.9978        :N:A:D
  190  D0_WA_pdf_14                           0.0342   +/-   0.9866        :N:A:D
  191  D0_WA_pdf_15                           0.0592   +/-   0.9768        :N:A:D
  192  D0_WA_pdf_16                          -0.1058   +/-   0.9956        :N:A:D
  193  D0_WA_pdf_17                           0.0018   +/-   0.8899        :N:A:D
  194  D0_WA_pdf_18                          -0.0951   +/-   0.9774        :N:A:D
  195  D0_WA_pdf_19                          -0.0700   +/-   0.9957        :N:A:D
  196  D0_WA_pdf_20                          -0.0121   +/-   0.9941        :N:A:D
  197  D0_WA_pdf_21                          -0.0616   +/-   0.9995        :N:A:D
  198  D0_WA_pdf_22                           0.0000   +/-   1.0000        :N:A:D
  199  CDF_ZY_lum                             1.2921   +/-   0.0941        :N:M:D
  200  CDF_ZY_background_CC                   0.0350   +/-   0.9993        :N:A:D
  201  CDF_ZY_background_CF                  -0.1701   +/-   0.9156        :N:A:D
  202  CDF_ZY_background_FF                  -0.9307   +/-   0.7723        :N:A:D
  203  CDF_ZY_CMaterial                      -0.3472   +/-   0.9615        :N:M:D
  204  CDF_ZY_FMaterial                      -0.2203   +/-   0.9861        :N:M:D
  205  CDF_ZY_ZVtx                            0.3975   +/-   0.9263        :N:M:D
  206  CDF_ZY_Trkeff                         -0.1659   +/-   0.9510        :N:M:D
  207  CDF_ZY_NoTrk                           0.2400   +/-   0.9743        :N:M:D
  208  CDF_WA_chmisid                         0.0190   +/-   0.9296        :N:A:D
  209  CDF_WA_background                     -0.7331   +/-   0.9303        :N:A:D
  210  CDF_WA_energyscale                     0.1144   +/-   0.8851        :N:A:D
  211  CDF_WA_recoil                         -0.6103   +/-   0.5476        :N:A:D
  212  CDF_WA_pdf                            -0.4809   +/-   0.8797        :N:A:D
After minimisation    1515.32  1223     1.239

  Partial chi2s 
Dataset    1    434.94(+13.87)   377  HERA1+2 NCep 920                                
Dataset    2     69.07( +1.20)    70  HERA1+2 NCep 820                                
Dataset    3    220.98( +3.91)   254  HERA1+2 NCep 575                                
Dataset    4    217.63( +1.33)   204  HERA1+2 NCep 460                                
Dataset    5    223.58( +1.26)   159  HERA1+2 NCem                                    
Dataset    6     47.48( +1.93)    39  HERA1+2 CCep                                    
Dataset    7     66.87( -1.08)    42  HERA1+2 CCem                                    
Dataset    8     22.41( +0.02)    28  D0 Z rapidity 2007                              
Dataset    9     16.38( +0.00)    10  D0 W->mu nu lepton asymmetry ptl > 25 GeV       
Dataset   10     15.56( -0.00)    14  D0 W asymmetry 2013                             
Dataset   11     28.44( -1.85)    28  CDF Z rapidity 2010                             
Dataset   12     14.50( -0.00)    13  CDF W asymmetry 2009                            

 Correlated Chi2    116.87741451998060     
 Log penalty Chi2    20.592532585971302     
 Systematic shifts          212
  
                                Name          Shift   +/-    Error          Type
    1  sysHZComb1001                          0.5013   +/-   0.9327        :N:M:D
    2  sysHZComb1002                         -0.6054   +/-   0.9364        :N:M:D
    3  sysHZComb1003                          1.4751   +/-   0.5564        :N:M:D
    4  sysHZComb1004                          0.1420   +/-   0.6186        :N:M:D
    5  sysHZComb1005                          1.7117   +/-   0.6091        :N:M:D
    6  sysHZComb1006                         -1.5541   +/-   0.7878        :N:M:D
    7  sysHZComb1007                          0.1240   +/-   0.9982        :N:M:D
    8  sysHZComb1008                          0.0665   +/-   0.9983        :N:M:D
    9  sysHZComb1009                          0.0612   +/-   0.8990        :N:M:D
   10  sysHZComb1010                         -0.3508   +/-   0.9935        :N:M:D
   11  sysHZComb1011                         -0.9923   +/-   0.9661        :N:M:D
   12  sysHZComb1012                          0.3805   +/-   0.9721        :N:M:D
   13  sysHZComb1013                         -0.7115   +/-   0.9619        :N:M:D
   14  sysHZComb1014                         -0.0629   +/-   0.9875        :N:M:D
   15  sysHZComb1015                         -0.1382   +/-   0.9631        :N:M:D
   16  sysHZComb1016                         -0.0673   +/-   0.9747        :N:M:D
   17  sysHZComb1017                         -0.2046   +/-   0.9709        :N:M:D
   18  sysHZComb1018                          0.1829   +/-   0.8223        :N:M:D
   19  sysHZComb1019                         -0.3274   +/-   0.9836        :N:M:D
   20  sysHZComb1020                         -0.3076   +/-   0.9814        :N:M:D
   21  sysHZComb1021                         -0.0872   +/-   0.9743        :N:M:D
   22  sysHZComb1022                          0.1737   +/-   0.9686        :N:M:D
   23  sysHZComb1023                         -0.3378   +/-   0.9450        :N:M:D
   24  sysHZComb1024                         -0.1213   +/-   0.9878        :N:M:D
   25  sysHZComb1025                          0.1685   +/-   0.9933        :N:M:D
   26  sysHZComb1026                         -0.7541   +/-   0.9199        :N:M:D
   27  sysHZComb1027                         -1.2438   +/-   0.9542        :N:M:D
   28  sysHZComb1028                          0.9689   +/-   0.9749        :N:M:D
   29  sysHZComb1029                         -0.8323   +/-   0.9181        :N:M:D
   30  sysHZComb1030                         -0.6334   +/-   0.9436        :N:M:D
   31  sysHZComb1031                         -0.7532   +/-   0.8383        :N:M:D
   32  sysHZComb1032                          0.8327   +/-   0.9642        :N:M:D
   33  sysHZComb1033                          0.7807   +/-   0.9706        :N:M:D
   34  sysHZComb1034                         -0.4213   +/-   0.9840        :N:M:D
   35  sysHZComb1035                          0.0068   +/-   0.9780        :N:M:D
   36  sysHZComb1036                         -0.7265   +/-   0.9741        :N:M:D
   37  sysHZComb1037                          0.6472   +/-   0.9701        :N:M:D
   38  sysHZComb1038                         -0.6485   +/-   0.9123        :N:M:D
   39  sysHZComb1039                         -0.7230   +/-   0.9533        :N:M:D
   40  sysHZComb1040                         -0.0136   +/-   0.9300        :N:M:D
   41  sysHZComb1041                         -0.5131   +/-   0.8115        :N:M:D
   42  sysHZComb1042                         -0.1797   +/-   0.8739        :N:M:D
   43  sysHZComb1043                          0.0225   +/-   0.9091        :N:M:D
   44  sysHZComb1044                         -0.1050   +/-   0.9365        :N:M:D
   45  sysHZComb1045                         -0.4801   +/-   0.9305        :N:M:D
   46  sysHZComb1046                         -0.0295   +/-   0.9566        :N:M:D
   47  sysHZComb1047                          0.1312   +/-   0.9464        :N:M:D
   48  sysHZComb1048                          0.1012   +/-   0.9608        :N:M:D
   49  sysHZComb1049                         -0.8377   +/-   0.9449        :N:M:D
   50  sysHZComb1050                          0.7164   +/-   0.9426        :N:M:D
   51  sysHZComb1051                          0.5114   +/-   0.9522        :N:M:D
   52  sysHZComb1052                          0.9526   +/-   0.9505        :N:M:D
   53  sysHZComb1053                         -3.0025   +/-   0.9189        :N:M:D
   54  sysHZComb1054                         -0.0815   +/-   0.9749        :N:M:D
   55  sysHZComb1055                         -1.3700   +/-   0.9053        :N:M:D
   56  sysHZComb1056                         -1.6360   +/-   0.8899        :N:M:D
   57  sysHZComb1057                          0.0571   +/-   0.9190        :N:M:D
   58  sysHZComb1058                          0.0715   +/-   0.9431        :N:M:D
   59  sysHZComb1059                         -0.8838   +/-   0.8694        :N:M:D
   60  sysHZComb1060                          0.1670   +/-   0.9788        :N:M:D
   61  sysHZComb1061                          0.0496   +/-   0.9830        :N:M:D
   62  sysHZComb1062                         -1.4177   +/-   0.8944        :N:M:D
   63  sysHZComb1063                          0.7531   +/-   0.8360        :N:M:D
   64  sysHZComb1064                          0.6848   +/-   0.9292        :N:M:D
   65  sysHZComb1065                         -0.9553   +/-   0.9466        :N:M:D
   66  sysHZComb1066                         -0.8532   +/-   0.9318        :N:M:D
   67  sysHZComb1067                         -0.3056   +/-   0.9637        :N:M:D
   68  sysHZComb1068                         -0.3752   +/-   0.9197        :N:M:D
   69  sysHZComb1069                         -0.0404   +/-   0.9121        :N:M:D
   70  sysHZComb1070                          0.3951   +/-   0.9070        :N:M:D
   71  sysHZComb1071                         -1.5773   +/-   0.8568        :N:M:D
   72  sysHZComb1072                         -0.0123   +/-   0.9700        :N:M:D
   73  sysHZComb1073                         -0.1028   +/-   0.9034        :N:M:D
   74  sysHZComb1074                         -0.4089   +/-   0.9350        :N:M:D
   75  sysHZComb1075                         -0.3505   +/-   0.8647        :N:M:D
   76  sysHZComb1076                          0.0821   +/-   0.9604        :N:M:D
   77  sysHZComb1077                         -0.5034   +/-   0.9610        :N:M:D
   78  sysHZComb1078                         -0.0937   +/-   0.9756        :N:M:D
   79  sysHZComb1079                         -0.4561   +/-   0.8839        :N:M:D
   80  sysHZComb1080                         -0.4788   +/-   0.9246        :N:M:D
   81  sysHZComb1081                         -0.1334   +/-   0.8870        :N:M:D
   82  sysHZComb1082                         -0.7132   +/-   0.8376        :N:M:D
   83  sysHZComb1083                         -1.2998   +/-   0.8898        :N:M:D
   84  sysHZComb1084                          0.2717   +/-   0.9679        :N:M:D
   85  sysHZComb1085                         -0.2864   +/-   0.8681        :N:M:D
   86  sysHZComb1086                          0.0249   +/-   0.7912        :N:M:D
   87  sysHZComb1087                         -0.6564   +/-   0.8594        :N:M:D
   88  sysHZComb1088                          0.2838   +/-   0.9911        :N:M:D
   89  sysHZComb1089                         -0.0281   +/-   0.9608        :N:M:D
   90  sysHZComb1090                          0.8144   +/-   0.9426        :N:M:D
   91  sysHZComb1091                          0.7338   +/-   0.8867        :N:M:D
   92  sysHZComb1092                         -0.0158   +/-   0.8083        :N:M:D
   93  sysHZComb1093                          0.0415   +/-   0.7898        :N:M:D
   94  sysHZComb1094                          0.0597   +/-   0.9992        :N:M:D
   95  sysHZComb1095                         -0.3201   +/-   0.8452        :N:M:D
   96  sysHZComb1096                         -0.0119   +/-   0.8942        :N:M:D
   97  sysHZComb1097                          0.2584   +/-   0.9878        :N:M:D
   98  sysHZComb1098                          1.6591   +/-   0.7348        :N:M:D
   99  sysHZComb1099                         -1.1161   +/-   0.6828        :N:M:D
  100  sysHZComb1100                         -0.7463   +/-   0.6871        :N:M:D
  101  sysHZComb1101                         -0.1988   +/-   0.7714        :N:M:D
  102  sysHZComb1102                         -0.3629   +/-   0.9017        :N:M:D
  103  sysHZComb1103                          0.1576   +/-   0.7902        :N:M:D
  104  sysHZComb1104                         -1.2289   +/-   0.7934        :N:M:D
  105  sysHZComb1105                          0.8207   +/-   0.6943        :N:M:D
  106  sysHZComb1106                         -0.4350   +/-   0.7712        :N:M:D
  107  sysHZComb1107                          0.9373   +/-   0.7407        :N:M:D
  108  sysHZComb1108                          2.1623   +/-   0.6784        :N:M:D
  109  sysHZComb1109                          0.4157   +/-   0.9899        :N:M:D
  110  sysHZComb1110                         -1.1985   +/-   0.7023        :N:M:D
  111  sysHZComb1111                         -1.8619   +/-   0.5489        :N:M:D
  112  sysHZComb1112                          0.2717   +/-   0.9904        :N:M:D
  113  sysHZComb1113                          1.1179   +/-   0.8383        :N:M:D
  114  sysHZComb1114                          1.7743   +/-   0.8053        :N:M:D
  115  sysHZComb1115                          1.0337   +/-   0.7563        :N:M:D
  116  sysHZComb1116                         -0.1849   +/-   0.7722        :N:M:D
  117  sysHZComb1117                          1.2032   +/-   0.8179        :N:M:D
  118  sysHZComb1118                         -0.1802   +/-   0.9966        :N:M:D
  119  sysHZComb1119                          0.3934   +/-   0.9748        :N:M:D
  120  sysHZComb1120                          0.9122   +/-   0.8521        :N:M:D
  121  sysHZComb1121                          0.2518   +/-   0.9900        :N:M:D
  122  sysHZComb1122                          0.2428   +/-   0.9325        :N:M:D
  123  sysHZComb1123                         -0.3050   +/-   0.9284        :N:M:D
  124  sysHZComb1124                         -1.1518   +/-   0.8619        :N:M:D
  125  sysHZComb1125                          1.0601   +/-   0.8715        :N:M:D
  126  sysHZComb1126                         -0.2014   +/-   0.9163        :N:M:D
  127  sysHZComb1127                          0.1169   +/-   0.9233        :N:M:D
  128  sysHZComb1128                         -0.3571   +/-   0.9554        :N:M:D
  129  sysHZComb1129                          0.2424   +/-   0.8582        :N:M:D
  130  sysHZComb1130                         -0.0861   +/-   0.8069        :N:M:D
  131  sysHZComb1131                         -0.3823   +/-   0.7911        :N:M:D
  132  sysHZComb1132                         -0.6560   +/-   0.7894        :N:M:D
  133  sysHZComb1133                          0.4467   +/-   0.8220        :N:M:D
  134  sysHZComb1134                          0.5920   +/-   0.9787        :N:M:D
  135  sysHZComb1135                         -1.6475   +/-   0.8192        :N:M:D
  136  sysHZComb1136                          0.6939   +/-   0.8781        :N:M:D
  137  sysHZComb1137                         -0.6309   +/-   0.8843        :N:M:D
  138  sysHZComb1138                          0.6271   +/-   0.9196        :N:M:D
  139  sysHZComb1139                         -1.1255   +/-   0.9411        :N:M:D
  140  sysHZComb1140                         -0.4101   +/-   0.9578        :N:M:D
  141  sysHZComb1141                         -0.2207   +/-   0.9710        :N:M:D
  142  sysHZComb1142                          1.0253   +/-   0.8607        :N:M:D
  143  sysHZComb1143                          0.4973   +/-   0.8551        :N:M:D
  144  sysHZComb1144                          1.2749   +/-   0.8415        :N:M:D
  145  sysHZComb1145                          0.3197   +/-   0.9860        :N:M:D
  146  sysHZComb1146                          0.2175   +/-   0.9896        :N:M:D
  147  sysHZComb1147                          0.6518   +/-   0.8043        :N:M:D
  148  sysHZComb1148                         -0.6697   +/-   0.7928        :N:M:D
  149  sysHZComb1149                          0.5294   +/-   0.7647        :N:M:D
  150  sysHZComb1150                         -0.5189   +/-   0.7876        :N:M:D
  151  sysHZComb1151                         -0.2294   +/-   0.9630        :N:M:D
  152  sysHZComb1152                          0.6755   +/-   0.7345        :N:M:D
  153  sysHZComb1153                         -1.6381   +/-   0.8348        :N:M:D
  154  sysHZComb1154                         -0.3963   +/-   0.8124        :N:M:D
  155  sysHZComb1155                          1.6056   +/-   0.8163        :N:M:D
  156  sysHZComb1156                         -0.0128   +/-   0.9157        :N:M:D
  157  sysHZComb1157                          0.7812   +/-   0.7226        :N:M:D
  158  sysHZComb1158                          0.0520   +/-   0.7978        :N:M:D
  159  sysHZComb1159                         -0.0230   +/-   1.0000        :N:M:D
  160  sysHZComb1160                         -0.1009   +/-   0.8818        :N:M:D
  161  sysHZComb1161                          0.6709   +/-   0.8417        :N:M:D
  162  sysHZComb1162                          0.9482   +/-   0.8881        :N:M:D
  163  proc_nrl                               0.5594   +/-   0.3873        :N:M:D
  164  proc_tb21                             -3.3452   +/-   0.6709        :N:M:D
  165  proc_tb22                             -1.4883   +/-   0.3065        :N:M:D
  166  proc_tb23                             -0.0370   +/-   0.4335        :N:M:D
  167  proc_tb24                             -0.6101   +/-   0.4095        :N:M:D
  168  proc_gp                               -0.0907   +/-   0.4541        :N:M:D
  169  proc_had                              -0.6412   +/-   0.5379        :N:M:D
  170  D0_ZY_2007_SystCorr                    0.0260   +/-   0.2652        :N:M:D
  171  D0_WMUA_EWbkg                          0.2591   +/-   0.9649        :N:A:D
  172  D0_WMUA_MJbkg                          0.9412   +/-   0.9291        :N:A:D
  173  D0_WMUA_charge_misid                   0.0753   +/-   0.9967        :N:A:D
  174  D0_WMUA_rel_charge_efficiency          0.0401   +/-   0.9593        :N:A:D
  175  D0_WMUA_magnet_pol_weighting          -0.0297   +/-   0.9981        :N:A:D
  176  D0_WMUA_momentum_met_resolution        0.6941   +/-   0.5279        :N:A:D
  177  D0_WA_pdf_01                          -0.0310   +/-   0.9876        :N:A:D
  178  D0_WA_pdf_02                           0.0413   +/-   0.9972        :N:A:D
  179  D0_WA_pdf_03                          -0.0152   +/-   0.9997        :N:A:D
  180  D0_WA_pdf_04                          -0.0538   +/-   0.9882        :N:A:D
  181  D0_WA_pdf_05                          -0.0898   +/-   0.9855        :N:A:D
  182  D0_WA_pdf_06                          -0.0017   +/-   0.9938        :N:A:D
  183  D0_WA_pdf_07                           0.0524   +/-   0.9938        :N:A:D
  184  D0_WA_pdf_08                           0.0351   +/-   0.9995        :N:A:D
  185  D0_WA_pdf_09                          -0.0001   +/-   0.9432        :N:A:D
  186  D0_WA_pdf_10                           0.1048   +/-   0.9694        :N:A:D
  187  D0_WA_pdf_11                          -0.0811   +/-   0.9852        :N:A:D
  188  D0_WA_pdf_12                          -0.0453   +/-   0.9946        :N:A:D
  189  D0_WA_pdf_13                          -0.0036   +/-   0.9978        :N:A:D
  190  D0_WA_pdf_14                           0.0173   +/-   0.9866        :N:A:D
  191  D0_WA_pdf_15                           0.0722   +/-   0.9768        :N:A:D
  192  D0_WA_pdf_16                          -0.1027   +/-   0.9956        :N:A:D
  193  D0_WA_pdf_17                          -0.1598   +/-   0.8899        :N:A:D
  194  D0_WA_pdf_18                          -0.0151   +/-   0.9774        :N:A:D
  195  D0_WA_pdf_19                          -0.0886   +/-   0.9957        :N:A:D
  196  D0_WA_pdf_20                          -0.0312   +/-   0.9941        :N:A:D
  197  D0_WA_pdf_21                          -0.0664   +/-   0.9995        :N:A:D
  198  D0_WA_pdf_22                           0.0000   +/-   1.0000        :N:A:D
  199  CDF_ZY_lum                             1.2921   +/-   0.0941        :N:M:D
  200  CDF_ZY_background_CC                   0.0350   +/-   0.9993        :N:A:D
  201  CDF_ZY_background_CF                  -0.1701   +/-   0.9156        :N:A:D
  202  CDF_ZY_background_FF                  -0.9307   +/-   0.7723        :N:A:D
  203  CDF_ZY_CMaterial                      -0.3472   +/-   0.9615        :N:M:D
  204  CDF_ZY_FMaterial                      -0.2203   +/-   0.9861        :N:M:D
  205  CDF_ZY_ZVtx                            0.3975   +/-   0.9263        :N:M:D
  206  CDF_ZY_Trkeff                         -0.1659   +/-   0.9510        :N:M:D
  207  CDF_ZY_NoTrk                           0.2400   +/-   0.9743        :N:M:D
  208  CDF_WA_chmisid                         0.1141   +/-   0.9296        :N:A:D
  209  CDF_WA_background                     -0.8391   +/-   0.9303        :N:A:D
  210  CDF_WA_energyscale                     0.2078   +/-   0.8851        :N:A:D
  211  CDF_WA_recoil                         -0.6214   +/-   0.5476        :N:A:D
  212  CDF_WA_pdf                            -0.5436   +/-   0.8797        :N:A:D
