386.70300 396.37
389.63602 395.35
384.51352 393.39
383.39600 390.41
381.64249 386.55
376.07648 381.63
362.36349 373.52
317.74249 348.54
259.12149 313.62
190.63251 272.89
118.44950 229.24
35.533649 185.14
