0.00 0.25 0.996909019871 9.4619944993e-05
0.25 0.50 0.997198550178 9.48097521313e-05
0.50 0.75 0.997238056838 9.52218880287e-05
0.75 1.00 0.997089440924 9.58486120025e-05
1.00 1.25 0.997235111513 9.66679609584e-05
1.25 1.50 0.997416502993 9.7837339483e-05
1.50 1.75 0.997346372022 9.91753807114e-05
1.75 2.00 0.997306646025 0.000101024667911
2.00 2.25 0.997254573877 0.000103373381252
2.25 2.50 0.997207331617 0.000106331634273
