0.125 1.02755771535277
0.375 1.0288814211012947
0.625 1.0303647250086814
0.875 1.0306564686349662
1.125 1.0295344303140317
1.375 1.0325077833104066
1.625 1.0317204037745955
1.875 1.0355717569860259
2.125 1.0365232131040931
2.375 1.0361133024300477
