0.125 1.0317995488466318
0.375 1.032472735735324
0.625 1.033973883539842
0.875 1.0340067214456625
1.125 1.0363485056076744
1.375 1.03993287691649
1.625 1.039939141865619
1.875 1.044535894694367
2.125 1.0457216706201746
2.375 1.0475324463145854
