0.0 0.1 0.9948909592612976 0.8618579315509801
0.1 0.2 0.9951971333231807 0.862765021985211
0.2 0.3 0.99543776954445 0.8648950835905079
0.3 0.4 0.9949020161697512 0.8668062760150628
0.4 0.5 0.9948548153166414 0.8703333697473759
0.5 0.6 0.9953425728895917 0.8748984560073328
0.6 0.7 0.9956990391075937 0.8800982309074312
0.7 0.8 0.9956001978844644 0.886382347511357
0.8 0.9 0.9955775388053142 0.893613708710052
0.9 1.0 0.9956637469319446 0.9025876678258689
1.0 1.1 0.9958673963142606 0.913313568558087
1.1 1.2 0.9960327168069455 0.9267951363188661
1.2 1.3 0.9959958813976104 0.9426454305957399
1.3 1.4 0.9966122884027567 0.963154602145922
1.4 1.5 0.9963046392771402 0.9870688284734415
1.5 1.6 0.9967660228111345 1.0174775485746104
1.6 1.7 0.9973964687979237 1.055877017142366
1.7 1.8 0.9971096924523217 1.1019503565754765
1.8 1.9 0.9970418642990162 1.15954777534554
1.9 2.0 0.9984441267210105 1.236081705462776
2.0 2.1 0.9991590454450913 1.3373149461990559
2.1 2.2 0.9992612102060744 1.4750830600300746
2.2 2.3 1.0023835571502173 1.651800119460854
2.3 2.4 1.0036369053324397 1.9516769531145044
2.4 2.5 1.007504386791558 2.1080096507907355
2.5 2.6 1.0092333545826595 2.8157673511847934
2.6 2.7 1.0156138334523641 3.2907169515289554
2.7 2.8 1.0275540731547579 3.7753480905430976
