0.0 0.21 0.968911097089 0.00136984931396
0.21 0.42 0.973491554265 0.0049758769817
0.42 0.63 0.972386327291 0.00193079990178
0.63 0.84 0.96951260474 0.00198472754589
0.84 1.05 0.973339314395 0.00197972719514
1.05 1.37 0.965989552665 0.00130489375633
1.37 1.52 0.972752946265 0.00292359999558
1.52 1.74 0.967581691085 0.00219518289209
1.74 1.95 0.964332770586 0.00234836418799
1.95 2.18 0.965868549476 0.00229650608385
2.18 2.5 0.965063585252 0.00186650612018
