0.0 0.21 0.9764297359611084 0.00181428588324627
0.21 0.42 0.9713815878059808 0.0024360607318976686
0.42 0.63 0.9751345128455702 0.00233375840428511
0.63 0.84 0.977399430064711 0.002804047095650876
0.84 1.05 0.9677924464136692 0.0030658808217458844
1.05 1.37 0.9764668591468924 0.003397547777129432
1.37 1.52 0.9645999063605909 0.0034461845856433807
1.52 1.74 0.9721300331884798 0.002375803936952893
1.74 1.95 0.9605080859856807 0.002477791986042078
1.95 2.18 0.9615027091214056 0.002248418774757753
2.18 2.5 0.9648860625293136 0.0016480954588172672
