0.0 0.5 0.983630236334027 0.00041670559206843835
0.5 1.0 0.9827698532469104 0.00042290574211847394
1.0 1.5 0.9802708151629084 0.0004695679800332336
1.5 2.0 0.9925545254290496 0.0007284108011304163
2.0 2.5 0.9981873869719998 0.0017409084909824086
