
 !*  File produced by HERAVerager
 !*  Created on 20160405

&Data
  Name = 'ATLAS Z 2.76 TeV'
  Reaction = 'NC pp'
  NData =     2
  NColumn = 7
  ColumnType = "Flag",2*"Bin","Sigma", 3*"Error"
  ColumnName ="binFlag", "y_min","y_max","Sigma", "stat", "Syst uncor", "Lumi_2_76TeV"
  NInfo = 1
  CInfo = 'theoryunit'
  DataInfo = 1.
TermType = 'reaction'
  IndexDataset =   1501
          TheoryType = 'expression'
          TermName = 'A1', 'K'
          TermSource = 'APPLgrid','KFactor'
          TermInfo = 'GridName=datafiles/lhc/atlas/wzProduction/1907.03567/Z_2_76.root', 'FileName=datafiles/lhc/atlas/wzProduction/1907.03567/kf.nnlojet.z.txt'
          TheorExpr = '0.995709908756545*A1/2'
  Percent = 3*False
&End
&PlotDesc
	 PlotN = 1
	 PlotDefColumn = 'y_max'
	 PlotDefValue = 0., 1.0
	 PlotOptions(1)  = 'Experiment:ATLAS@ExtraLabel:pp #rightarrow Z; #sqrt{s} = 2.76 TeV; #int L = 4.0 pb^{-1}@Title: 66 < M_{Z} < 116@YTitle: Inclusive #sigma '
&End
0  -1.0  0.0    0.0  0.0  0.0  0.0
1   0.0  1.0  202.4  6.2  2.0  6.3
