        0      0.2       0.995012012818    8.34568687217e-05
      0.2      0.4       0.994894131717    8.36442710625e-05
      0.4      0.6       0.994873945919     8.4025751106e-05
      0.6      0.8       0.994804963564    8.46403466564e-05
      0.8        1       0.994873240127    8.54889454032e-05
        1      1.2       0.995027311518    8.74513048816e-05
      1.2      1.4        0.99527568987    9.25094551898e-05
      1.4      1.6       0.995390990526     0.00010002665653
      1.6      1.8       0.995239724726    0.000111684959833
      1.8        2       0.995133840772    0.000130443819443
        2      2.2       0.995097663949    0.000163630062482
      2.2      2.4       0.995039524337     0.00023892707838
