      1.2      1.4        0.99135484104    0.000674975209444
      1.4      1.6       0.992687968399     0.00048063031331
      1.6      1.8       0.993661313411    0.000384077868039
      1.8        2       0.993838548911    0.000326836421427
        2      2.2       0.994047728159    0.000289736241509
      2.2      2.4       0.994481293293    0.000268194663614
      2.4      2.8       0.994371590023      0.0001974277949
      2.8      3.2       0.994565469177     0.00029331001155
      3.2      3.6       0.995484106237    0.000592587696583
