        0     0.21        0.99563809331       9.62275821e-05
     0.21     0.42       0.995807179871    9.61887400247e-05
     0.42     0.63        0.99589813034    9.59327588404e-05
     0.63     0.84       0.995773496022    9.56668601648e-05
     0.84     1.05       0.995864319675    9.53147477661e-05
     1.05     1.37       0.995870195045    7.68167054395e-05
     1.37     1.52       0.995951889282    0.000111782975039
     1.52     1.74       0.996069313836    9.22912153701e-05
     1.74     1.95       0.996116896251    9.46922923467e-05
     1.95     2.18       0.996672784404    9.15784798362e-05
     2.18      2.5       0.997121939476    8.02609744682e-05
