1.2 1.4 1.09485265643
1.4 1.6 0.987322778768
1.6 1.8 0.970782299788
1.8 2.0 0.970271258037
2.0 2.2 0.974908218633
2.2 2.4 0.978939206275
2.4 2.8 0.978544865956
2.8 3.2 0.963377493186
3.2 3.6 0.94098185069
