0.0 0.21 0.991695137872 0.000164816423913
0.21 0.42 0.990268006121 0.000215535551462
0.42 0.63 0.99109213989 0.000219601083715
0.63 0.84 0.991970019379 0.000235522820702
0.84 1.05 0.991691918663 0.000229752415268
1.05 1.37 0.991983223699 0.000171129882908
1.37 1.52 0.993228586185 0.000319072358663
1.52 1.74 0.993312411117 0.000258707722525
1.74 1.95 0.993402686535 0.000276071950174
1.95 2.18 0.993585923973 0.000263720014098
2.18 2.5 0.992174295843 0.000220431423457
