0.0 0.4 0.959396739071 0.00041725605614
0.4 0.8 0.962848433521 0.000423180544812
0.8 1.2 0.963974567256 0.000385017578907
1.2 1.6 0.975946427125 0.000458916694397
1.6 2.0 0.98053577505 0.000607612680832
2.0 2.4 0.986514725127 0.00108943427289
