0.0 0.2 0.9805800986398633 9.251609503171769e-05
0.2 0.4 0.9805771073517774 9.34493886610814e-05
0.4 0.6 0.9805169786925263 9.323818594565241e-05
0.6 0.8 0.9813339460273325 9.455752719087579e-05
0.8 1.0 0.9809378532365035 9.485167581554653e-05
1.0 1.2 0.9739663067975682 9.589218714683878e-05
1.2 1.4 0.9759731112650742 0.0001065033591162331
1.4 1.6 0.9827279593182736 0.0001225944529312272
1.6 1.8 0.9890832965239434 0.00013587041273557284
1.8 2.0 0.9945164565514985 0.000160151015045031
2.0 2.2 0.9994898650283484 0.00023190493667548106
2.2 2.4 1.002238691040182 0.00035284390695760405
