0.0 0.4 1.1148132873419827 0.0006263894494525544
0.4 0.8 1.1148267365869684 0.0006283189391541159
0.8 1.2 1.1136299182385794 0.0006313584475199907
1.2 1.6 1.1105773525836835 0.0005874726921024677
1.6 2.0 1.0842340353347923 0.0004835440791554783
2.0 2.4 1.0852197207049243 0.0005959566181233671
