0.1 1.0052946914859024 0.0001652217335650035 0.00016435154285037872
0.3 1.004152745289301 0.00018402410006620117 0.00018326305527669796
0.5 1.0022206880053828 0.00018181281574051585 0.00018140996081647374
0.7 1.0043170759992597 0.00018895119478980083 0.000188138984495311
0.9 1.0058143379432327 0.00020299203279667492 0.00020181859130360857
1.1 1.0020981861899199 0.00018111936943552418 0.00018074014296359382
1.3 0.9829388927462012 0.0001878734111121846 0.00019113437518714023
1.5 0.9927573177176744 0.00017992533001213705 0.0001812379791123385
1.7 1.0012901992142371 0.0001871574563349209 0.00018691629707530622
1.9 1.0095242742486668 0.00021810934567030604 0.00021605161087645249
2.1 1.017554051884961 0.00025802637862571115 0.0002535751080227453
2.3 1.0229487795592183 0.00035743507949293586 0.00034941639956494424
