#ylo yhi PDF0  uncertainty
-2.4 -2.2 3810.751409926537 9.73073038039729e-05
-2.2 -2 7923.374018986129 0.000169245463439438
-2 -1.8 12117.65486221575 0.001211416547448607
-1.8 -1.6 16131.26354962872 0.0003370945833012229
-1.6 -1.4 19738.79060069816 0.001533166876470204
-1.4 -1.2 22794.58124234775 0.001081633388821501
-1.2 -1 25184.43458052554 0.001100290435715578
-1 -0.8 26191.5560692882 0.001511304370069411
-0.8 -0.6 26541.03314992474 5.950866761850193e-05
-0.6 -0.4 26797.21433576639 0.0001260916578758042
-0.4 -0.2 26966.16532170932 0.0002091645583277568
-0.2 0 27048.65682798964 0.0001249952765647322
0 0.2 27048.6568433863 0.0001269135827897117
0.2 0.4 26966.16536835409 0.0002091645765176509
0.4 0.6 26797.21441484625 0.0001359469861199614
0.6 0.8 26541.03326294565 7.357899085036479e-05
0.8 1 26191.55621152855 0.001515793053840753
1 1.2 25184.43473500383 0.001100282475817949
1.2 1.4 22794.58142235068 0.001080972597264918
1.4 1.6 19738.79080911191 0.00158282115808106
1.6 1.8 16131.26372691971 0.0003591338227124652
1.8 2 12117.65528187946 0.000233883361943299
2 2.2 7923.374148959427 0.0001303273302255548
2.2 2.4 3810.751478677862 8.951085783337476e-05
-2.4 2.4 482490.9536729706 0.004023407003512158
