      1.2      1.6       0.982420533391     0.00014744988305
      1.6        2       0.985781264251     0.00010492883248
        2      2.4       0.988434626347    8.59088851658e-05
      2.4      2.8        0.98871576387    8.94394002867e-05
      2.8      3.2       0.984566951766    0.000147254887666
      3.2      3.6       0.980218630276    0.000384245661752
