0.0 0.21 1.04093664127 0.000478439071276
0.21 0.42 1.0406483223 0.000674828928286
0.42 0.63 1.03696482737 0.000674163996124
0.63 0.84 1.03883068565 0.000680048452107
0.84 1.05 1.03692461858 0.000697588399958
1.05 1.37 1.03891039532 0.000499104882831
1.37 1.52 1.04410439297 0.00101049282646
1.52 1.74 1.03800943719 0.000705038513204
1.74 1.95 1.03543610173 0.000725254197217
1.95 2.18 1.03466439574 0.000668162632153
2.18 2.4 1.03687782662 0.000698593717033
