0	0.2	0.995369017
0.2	0.4	0.995261401
0.4	0.6	0.997396141
0.6	0.8	0.997556278
0.8	1	0.998348406
1	1.2	0.996396223
1.2	1.4	0.996475235
1.4	1.6	0.99924282
1.6	1.85	0.999470865
1.85	2.1	0.998444149
2.1	2.4	1.001511249
