0	0.2	0.998815408
0.2	0.4	0.999835765
0.4	0.6	1.001071628
0.6	0.8	0.999901405
0.8	1	0.997883025
1	1.2	1.000721892
1.2	1.4	0.996721894
1.4	1.6	0.996537622
1.6	1.85	0.996645249
1.85	2.1	0.996601494
2.1	2.4	0.994628244
