abs_y_mid e*A e_tot e_stat e_method e_Escale e_PDF e_ymodeling
0.05 0.2770 0.0025 0.0001 0.0010 0.0013 0.0001 0.0016
0.15 0.2673 0.0021 0.0001 0.0010 0.0009 0.0001 0.0014
0.25 0.2537 0.0020 0.0001 0.0009 0.0009 0.0001 0.0014
0.35 0.2427 0.0019 0.0001 0.0009 0.0010 0.0000 0.0010
0.45 0.2316 0.0021 0.0001 0.0008 0.0011 0.0001 0.0014
0.55 0.2252 0.0020 0.0001 0.0008 0.0009 0.0001 0.0013
0.65 0.2160 0.0017 0.0001 0.0008 0.0010 0.0001 0.0006
0.75 0.2100 0.0021 0.0001 0.0008 0.0009 0.0001 0.0016
0.85 0.2044 0.0019 0.0001 0.0009 0.0010 0.0001 0.0011
0.95 0.2074 0.0023 0.0001 0.0011 0.0013 0.0001 0.0012
1.05 0.2211 0.0020 0.0001 0.0013 0.0009 0.0001 0.0009
1.15 0.2432 0.0023 0.0002 0.0015 0.0008 0.0001 0.0015
1.25 0.2561 0.0028 0.0002 0.0017 0.0011 0.0001 0.0019
1.35 0.2483 0.0027 0.0002 0.0017 0.0014 0.0001 0.0015
1.45 0.2231 0.0025 0.0002 0.0016 0.0008 0.0001 0.0015
1.55 0.2020 0.0022 0.0002 0.0016 0.0008 0.0001 0.0012
1.65 0.1977 0.0025 0.0002 0.0018 0.0012 0.0001 0.0011
1.75 0.2014 0.0026 0.0002 0.0021 0.0010 0.0001 0.0011
1.85 0.2081 0.0029 0.0003 0.0024 0.0008 0.0002 0.0012
1.95 0.2166 0.0030 0.0003 0.0027 0.0003 0.0001 0.0013
2.05 0.2228 0.0031 0.0003 0.0029 0.0007 0.0002 0.0007
2.15 0.2299 0.0040 0.0004 0.0032 0.0008 0.0002 0.0021
2.25 0.2221 0.0036 0.0005 0.0033 0.0009 0.0003 0.0006
2.35 0.2087 0.0040 0.0006 0.0034 0.0015 0.0003 0.0013
2.45 0.1852 0.0039 0.0007 0.0032 0.0014 0.0003 0.0011
2.55 0.1497 0.0039 0.0008 0.0030 0.0020 0.0008 0.0008
2.65 0.1313 0.0058 0.0011 0.0029 0.0027 0.0010 0.0036
2.8 0.0939 0.0053 0.0013 0.0023 0.0032 0.0007 0.0029
