#ylo yhi PDF0  uncertainty
-2.4 -2.2 3831.53901908538 8.730576064408524e-05
-2.2 -2 7964.863496785169 0.005978242727906036
-2 -1.8 12177.71686803639 0.001201909723022254
-1.8 -1.6 16206.20323884724 0.0003307944753032643
-1.6 -1.4 19824.26819473889 0.001532126912934473
-1.4 -1.2 22886.48863234714 0.006562936625414295
-1.2 -1 25279.22978434869 0.01110012430217466
-1 -0.8 26284.38563277184 0.02164902188815176
-0.8 -0.6 26630.37313343344 0.006561709888046607
-0.6 -0.4 26883.85147527024 0.003910342031304026
-0.4 -0.2 27050.93759715779 0.02461012827188824
-0.2 0 27132.49174939985 0.003761108473554486
0 0.2 27132.49176492893 0.003761108597245766
0.2 0.4 27050.9376442013 0.02461012890125858
0.4 0.6 26883.85155501865 0.003910342107701581
0.6 0.8 26630.3732473747 0.006561682901519816
0.8 1 26284.38578285583 0.02165172457171138
1 1.2 25279.22994970303 0.01110051090654451
1.2 1.4 22886.48880444467 0.006595412785827648
1.4 1.6 19824.26840474329 0.001582157921802718
1.6 1.8 16206.20341745892 0.00035299765477248
1.8 2 12177.71705515698 0.001205869846671703
2 2.2 7964.863588476551 0.006012296669723582
2.2 2.4 3831.539088295191 7.945622519400786e-05
-2.4 2.4 484304.6991248801 0.05202566143462923
