0.0 0.21 1.0029022320278322 0.0003652318182761531
0.21 0.42 1.0025609884198057 0.00048734675687600864
0.42 0.63 1.0037479690464388 0.0004930429210889295
0.63 0.84 1.0033289070420384 0.0004873395777593052
0.84 1.05 1.003534381251366 0.0004953519424966799
1.05 1.37 1.002588415513916 0.00036508349037674994
1.37 1.52 1.0024301429324547 0.0007244740152257001
1.52 1.74 0.998363422871425 0.0005111669529632058
1.74 1.95 0.9949921093634799 0.0004841940043040878
1.95 2.18 0.9904570054795431 0.0004389362018564028
2.18 2.5 0.9861953953600056 0.00032469938716797933
