1.2 1.6 0.9601524312034959 0.0027280294216566275
1.6 2.0 0.9656955317901955 0.0012394455357123625
2.0 2.4 0.9758839445702887 0.0007769143961671963
2.4 2.8 0.9795251732036782 0.0006337061840612395
2.8 3.2 0.9650961779062097 0.0011978985892212822
3.2 3.6 0.9533946427258403 0.002431939122960434
