0.0 0.21 1.005381740449864 0.00026174538091608965
0.21 0.42 1.005357619853724 0.0003476822171093294
0.42 0.63 1.0064798053395319 0.00035888010524467155
0.63 0.84 1.0061715721677467 0.00035113151544464424
0.84 1.05 1.0063392474910484 0.0003423763030552894
1.05 1.37 1.0064196162421442 0.000264332961748911
1.37 1.52 1.0067980000494234 0.0004987627628970346
1.52 1.74 1.0043823433745802 0.00035948510019749244
1.74 1.95 1.0024602527484232 0.0003585939070705333
1.95 2.18 1.0006557268032679 0.0003257487470402165
2.18 2.5 0.9989685513071268 0.00023154393313483407
