0.0 0.4 1.0647830050249107 0.0007411312206177217
0.4 0.8 1.0654474751851966 0.0007482444249816334
0.8 1.2 1.0632816786471946 0.0007419708891975405
1.2 1.6 1.0594432234404978 0.0006851662279085958
1.6 2.0 1.0265844411186569 0.0005762693196891104
2.0 2.4 1.025580586961691 0.000670624163645971
