0.0 0.2 0.9844357982762482 4.986587188008358e-05
0.2 0.4 0.9845223053519336 5.138462035455158e-05
0.4 0.6 0.9845273673231602 5.028834023415771e-05
0.6 0.8 0.9852529733929655 5.1881142687613705e-05
0.8 1.0 0.9848968837558398 5.1288694290036e-05
1.0 1.2 0.9777642524561404 5.107457666198831e-05
1.2 1.4 0.9796453574724173 6.300812659436644e-05
1.4 1.6 0.9861736461454786 7.935824986000757e-05
1.6 1.8 0.9927445651233971 8.609097500995596e-05
1.8 2.0 0.9983049522137747 0.0001022312566413238
2.0 2.2 1.0030415249200884 0.0001725949801526202
2.2 2.4 1.00576908597017 0.00026965371994470776
