1.2 1.6 0.9696977873627023 0.0021674097622534547
1.6 2.0 0.9767707574090364 0.001019110628866072
2.0 2.4 0.9859079545777266 0.0006442648854948497
2.4 2.8 0.9920443076386549 0.0005538299127384538
2.8 3.2 0.9864150322945646 0.0010367522041617669
3.2 3.6 0.9809676879464285 0.002313954821682423
