0.0 0.2 0.9871821130475338 4.74700004316842e-05
0.2 0.4 0.9873327697247364 4.9043094584112506e-05
0.4 0.6 0.9873815495828011 4.7921185395775396e-05
0.6 0.8 0.9882170642017892 4.945657812462099e-05
0.8 1.0 0.9880659629279315 4.892678743394348e-05
1.0 1.2 0.9825479237426901 4.854078649434698e-05
1.2 1.4 0.9847317741098296 5.845033179078903e-05
1.4 1.6 0.9906258446888005 7.024971907396899e-05
1.6 1.8 0.9964211124796615 7.722114871710264e-05
1.8 2.0 1.0013202046958856 9.336618950134169e-05
2.0 2.2 1.0054795548070863 0.00015474385785273727
2.2 2.4 1.0081542306058917 0.0002403193546278227
