0.0 0.21 1.0022866868605973 0.00029628630409303844
0.21 0.42 1.001867021434948 0.00039110231776087626
0.42 0.63 1.003157175662741 0.0004037280014468354
0.63 0.84 1.0027249357377939 0.0003970876088725274
0.84 1.05 1.0027522593928084 0.00039880303838653823
1.05 1.37 1.0020658138280185 0.0002959802983839324
1.37 1.52 1.001618850955519 0.0005726857812611203
1.52 1.74 0.998900731688929 0.0004142000141276735
1.74 1.95 0.996165243753584 0.0003977087234832473
1.95 2.18 0.9924519523279756 0.00035512045205981005
2.18 2.5 0.9891660602570596 0.00026423422147809234
