1.2 1.4 1.083253277041927 0.0013417822723754784
1.4 1.6 0.9819178310053309 0.0005884867574363255
1.6 1.8 0.9688187629944174 0.00031816268017430813
1.8 2.0 0.9707222306902658 0.00020333146475012647
2.0 2.2 0.9770503310783867 0.00016633655114218978
2.2 2.4 0.9822790663823706 0.00011144991627519252
2.4 2.8 0.9831229625709385 6.95552179536324e-05
2.8 3.2 0.9690815252218155 0.00013989559736279404
3.2 3.6 0.9481364787511011 0.0003317485377777234
